simulation/qsim/and_port.msim.vcd
$comment
	File created using the following command:
		vcd file and_port.msim.vcd -direction
$end
$date
	Sat Jan 31 14:36:55 2026
$end
$version
	ModelSim Version 10.5b
$end
$timescale
	1ps
$end

$scope module and_port_vlg_vec_tst $end
$var reg 1 ! a $end
$var reg 1 " b $end
$var wire 1 # s $end

$scope module i1 $end
$var wire 1 $ gnd $end
$var wire 1 % vcc $end
$var wire 1 & unknown $end
$var tri1 1 ' devclrn $end
$var tri1 1 ( devpor $end
$var tri1 1 ) devoe $end
$var wire 1 * s~output_o $end
$var wire 1 + a~input_o $end
$var wire 1 , b~input_o $end
$var wire 1 - s~0_combout $end
$upscope $end
$upscope $end
$enddefinitions $end
#0
$dumpvars
0!
1"
0#
0$
1%
x&
1'
1(
1)
0*
0+
1,
0-
$end
#10000
1!
1+
1-
1*
1#
#20000
0!
0+
0-
0*
0#
#30000
0"
1!
0,
1+
#40000
0!
0+
#50000
1!
1+
#60000
1"
0!
1,
0+
#70000
1!
1+
1-
1*
1#
#80000
0!
0+
0-
0*
0#
#90000
0"
1!
0,
1+
#100000
0!
0+
#110000
1!
1+
#120000
1"
0!
1,
0+
#130000
1!
1+
1-
1*
1#
#140000
0!
0+
0-
0*
0#
#150000
0"
1!
0,
1+
#160000
0!
0+
#170000
1!
1+
#180000
1"
0!
1,
0+
#190000
1!
1+
1-
1*
1#
#200000
0!
0+
0-
0*
0#
#210000
0"
1!
0,
1+
#220000
0!
0+
#230000
1!
1+
#240000
1"
0!
1,
0+
#250000
1!
1+
1-
1*
1#
#260000
0!
0+
0-
0*
0#
#270000
0"
1!
0,
1+
#280000
0!
0+
#290000
1!
1+
#300000
1"
0!
1,
0+
#310000
1!
1+
1-
1*
1#
#320000
0!
0+
0-
0*
0#
#330000
0"
1!
0,
1+
#340000
0!
0+
#350000
1!
1+
#360000
1"
0!
1,
0+
#370000
1!
1+
1-
1*
1#
#380000
0!
0+
0-
0*
0#
#390000
0"
1!
0,
1+
#400000
0!
0+
#410000
1!
1+
#420000
1"
0!
1,
0+
#430000
1!
1+
1-
1*
1#
#440000
0!
0+
0-
0*
0#
#450000
0"
1!
0,
1+
#460000
0!
0+
#470000
1!
1+
#480000
1"
0!
1,
0+
#490000
1!
1+
1-
1*
1#
#500000
0!
0+
0-
0*
0#
#510000
0"
1!
0,
1+
#520000
0!
0+
#530000
1!
1+
#540000
1"
0!
1,
0+
#550000
1!
1+
1-
1*
1#
#560000
0!
0+
0-
0*
0#
#570000
0"
1!
0,
1+
#580000
0!
0+
#590000
1!
1+
#600000
1"
0!
1,
0+
#610000
1!
1+
1-
1*
1#
#620000
0!
0+
0-
0*
0#
#630000
0"
1!
0,
1+
#640000
0!
0+
#650000
1!
1+
#660000
1"
0!
1,
0+
#670000
1!
1+
1-
1*
1#
#680000
0!
0+
0-
0*
0#
#690000
0"
1!
0,
1+
#700000
0!
0+
#710000
1!
1+
#720000
1"
0!
1,
0+
#730000
1!
1+
1-
1*
1#
#740000
0!
0+
0-
0*
0#
#750000
0"
1!
0,
1+
#760000
0!
0+
#770000
1!
1+
#780000
1"
0!
1,
0+
#790000
1!
1+
1-
1*
1#
#800000
0!
0+
0-
0*
0#
#810000
0"
1!
0,
1+
#820000
0!
0+
#830000
1!
1+
#840000
1"
0!
1,
0+
#850000
1!
1+
1-
1*
1#
#860000
0!
0+
0-
0*
0#
#870000
0"
1!
0,
1+
#880000
0!
0+
#890000
1!
1+
#900000
1"
0!
1,
0+
#910000
1!
1+
1-
1*
1#
#920000
0!
0+
0-
0*
0#
#930000
0"
1!
0,
1+
#940000
0!
0+
#950000
1!
1+
#960000
1"
0!
1,
0+
#970000
1!
1+
1-
1*
1#
#980000
0!
0+
0-
0*
0#
#990000
0"
1!
0,
1+
