simulation/qsim/and_port.msim.vcd
$comment
	File created using the following command:
		vcd file and_port.msim.vcd -direction
$end
$date
	Mon Feb 02 14:02:55 2026
$end
$version
	ModelSim Version 10.5b
$end
$timescale
	1ps
$end

$scope module and_port_vhd_vec_tst $end
$var wire 1 ! a $end
$var wire 1 " b $end
$var wire 1 # s $end

$scope module i1 $end
$var wire 1 $ gnd $end
$var wire 1 % vcc $end
$var wire 1 & unknown $end
$var wire 1 ' devoe $end
$var wire 1 ( devclrn $end
$var wire 1 ) devpor $end
$var wire 1 * ww_devoe $end
$var wire 1 + ww_devclrn $end
$var wire 1 , ww_devpor $end
$var wire 1 - ww_a $end
$var wire 1 . ww_b $end
$var wire 1 / ww_s $end
$var wire 1 0 \s~output_o\ $end
$var wire 1 1 \a~input_o\ $end
$var wire 1 2 \b~input_o\ $end
$var wire 1 3 \s~0_combout\ $end
$var wire 1 4 \ALT_INV_b~input_o\ $end
$var wire 1 5 \ALT_INV_a~input_o\ $end
$upscope $end
$upscope $end
$enddefinitions $end
#0
$dumpvars
0!
0"
0#
0$
1%
x&
1'
1(
1)
1*
1+
1,
0-
0.
0/
00
01
02
03
14
15
$end
#40000
1"
1.
12
04
#80000
0"
1!
0.
1-
11
02
14
05
#120000
1"
1.
12
04
13
10
1/
1#
#160000
0"
0!
0.
0-
01
02
14
15
03
00
0/
0#
#200000
1"
1.
12
04
#240000
0"
1!
0.
1-
11
02
14
05
#280000
1"
1.
12
04
13
10
1/
1#
#320000
0"
0!
0.
0-
01
02
14
15
03
00
0/
0#
#360000
1"
1.
12
04
#400000
0"
1!
0.
1-
11
02
14
05
#440000
1"
1.
12
04
13
10
1/
1#
#480000
0"
0!
0.
0-
01
02
14
15
03
00
0/
0#
#520000
1"
1.
12
04
#560000
0"
1!
0.
1-
11
02
14
05
#600000
1"
1.
12
04
13
10
1/
1#
#640000
0"
0!
0.
0-
01
02
14
15
03
00
0/
0#
#680000
1"
1.
12
04
#720000
0"
1!
0.
1-
11
02
14
05
#760000
1"
1.
12
04
13
10
1/
1#
#800000
0"
0!
0.
0-
01
02
14
15
03
00
0/
0#
#840000
1"
1.
12
04
#880000
0"
1!
0.
1-
11
02
14
05
#920000
1"
1.
12
04
13
10
1/
1#
#960000
0"
0!
0.
0-
01
02
14
15
03
00
0/
0#
