simulation/qsim/port_xor.msim.vcd
$comment
	File created using the following command:
		vcd file port_xor.msim.vcd -direction
$end
$date
	Mon Feb 02 15:24:29 2026
$end
$version
	ModelSim Version 10.5b
$end
$timescale
	1ps
$end

$scope module port_xor_vlg_vec_tst $end
$var reg 1 ! a $end
$var reg 1 " b $end
$var reg 1 # c $end
$var reg 1 $ d $end
$var wire 1 % s $end

$scope module i1 $end
$var wire 1 & gnd $end
$var wire 1 ' vcc $end
$var wire 1 ( unknown $end
$var tri1 1 ) devclrn $end
$var tri1 1 * devpor $end
$var tri1 1 + devoe $end
$var wire 1 , s~output_o $end
$var wire 1 - a~input_o $end
$var wire 1 . b~input_o $end
$var wire 1 / c~input_o $end
$var wire 1 0 d~input_o $end
$var wire 1 1 s~0_combout $end
$upscope $end
$upscope $end
$enddefinitions $end
#0
$dumpvars
0!
0"
0#
0$
0%
0&
1'
x(
1)
1*
1+
0,
0-
0.
0/
00
01
$end
#15000
1$
10
11
1,
1%
#30000
1#
0$
1/
00
#45000
1$
10
01
0,
0%
#60000
1"
0#
0$
1.
0/
00
11
1,
1%
#75000
1$
10
01
0,
0%
#90000
1#
0$
1/
00
#105000
1$
10
11
1,
1%
#120000
1!
0"
0#
0$
1-
0.
0/
00
#135000
1$
10
01
0,
0%
#150000
1#
0$
1/
00
#165000
1$
10
11
1,
1%
#180000
1"
0#
0$
1.
0/
00
01
0,
0%
#195000
1$
10
11
1,
1%
#210000
1#
0$
1/
00
#225000
1$
10
01
0,
0%
#240000
0!
0"
0#
0$
0-
0.
0/
00
#255000
1$
10
11
1,
1%
#270000
1#
0$
1/
00
#285000
1$
10
01
0,
0%
#300000
1"
0#
0$
1.
0/
00
11
1,
1%
#315000
1$
10
01
0,
0%
#330000
1#
0$
1/
00
#345000
1$
10
11
1,
1%
#360000
1!
0"
0#
0$
1-
0.
0/
00
#375000
1$
10
01
0,
0%
#390000
1#
0$
1/
00
#405000
1$
10
11
1,
1%
#420000
1"
0#
0$
1.
0/
00
01
0,
0%
#435000
1$
10
11
1,
1%
#450000
1#
0$
1/
00
#465000
1$
10
01
0,
0%
#480000
0!
0"
0#
0$
0-
0.
0/
00
#495000
1$
10
11
1,
1%
#510000
1#
0$
1/
00
#525000
1$
10
01
0,
0%
#540000
1"
0#
0$
1.
0/
00
11
1,
1%
#555000
1$
10
01
0,
0%
#570000
1#
0$
1/
00
#585000
1$
10
11
1,
1%
#600000
1!
0"
0#
0$
1-
0.
0/
00
#615000
1$
10
01
0,
0%
#630000
1#
0$
1/
00
#645000
1$
10
11
1,
1%
#660000
1"
0#
0$
1.
0/
00
01
0,
0%
#675000
1$
10
11
1,
1%
#690000
1#
0$
1/
00
#705000
1$
10
01
0,
0%
#720000
0!
0"
0#
0$
0-
0.
0/
00
#735000
1$
10
11
1,
1%
#750000
1#
0$
1/
00
#765000
1$
10
01
0,
0%
#780000
1"
0#
0$
1.
0/
00
11
1,
1%
#795000
1$
10
01
0,
0%
#810000
1#
0$
1/
00
#825000
1$
10
11
1,
1%
#840000
1!
0"
0#
0$
1-
0.
0/
00
#855000
1$
10
01
0,
0%
#870000
1#
0$
1/
00
#885000
1$
10
11
1,
1%
#900000
1"
0#
0$
1.
0/
00
01
0,
0%
#915000
1$
10
11
1,
1%
#930000
1#
0$
1/
00
#945000
1$
10
01
0,
0%
#960000
0!
0"
0#
0$
0-
0.
0/
00
#975000
1$
10
11
1,
1%
#990000
1#
0$
1/
00
